%YAML 1.1
%TAG !u! tag:unity3d.com,2011:
--- !u!54 &4213120314805777316
Rigidbody:
  m_ObjectHideFlags: 0
  m_CorrespondingSourceObject: {fileID: 0}
  m_PrefabInstance: {fileID: 0}
  m_PrefabAsset: {fileID: 0}
  m_GameObject: {fileID: 9186318094246992686}
  serializedVersion: 2
  m_Mass: 50
  m_Drag: 0
  m_AngularDrag: 0.05
  m_UseGravity: 1
  m_IsKinematic: 0
  m_Interpolate: 0
  m_Constraints: 112
  m_CollisionDetection: 0
--- !u!136 &171175017909829188
CapsuleCollider:
  m_ObjectHideFlags: 0
  m_CorrespondingSourceObject: {fileID: 0}
  m_PrefabInstance: {fileID: 0}
  m_PrefabAsset: {fileID: 0}
  m_GameObject: {fileID: 9186318094246992686}
  m_Material: {fileID: 0}
  m_IsTrigger: 0
  m_Enabled: 1
  m_Radius: 0.5
  m_Height: 2.1406085
  m_Direction: 1
  m_Center: {x: 0, y: 1.0306171, z: 0}
--- !u!95 &3484650287950527478
Animator:
  serializedVersion: 3
  m_ObjectHideFlags: 0
  m_CorrespondingSourceObject: {fileID: 0}
  m_PrefabInstance: {fileID: 0}
  m_PrefabAsset: {fileID: 0}
  m_GameObject: {fileID: 9186318094246992686}
  m_Enabled: 1
  m_Avatar: {fileID: 0}
  m_Controller: {fileID: 9100000, guid: 540ad1998a7093c41b7156dfb076ac2e, type: 2}
  m_CullingMode: 0
  m_UpdateMode: 0
  m_ApplyRootMotion: 0
  m_LinearVelocityBlending: 0
  m_WarningMessage: 
  m_HasTransformHierarchy: 1
  m_AllowConstantClipSamplingOptimization: 1
  m_KeepAnimatorControllerStateOnDisable: 0
--- !u!195 &7887786899926226677
NavMeshAgent:
  m_ObjectHideFlags: 0
  m_CorrespondingSourceObject: {fileID: 0}
  m_PrefabInstance: {fileID: 0}
  m_PrefabAsset: {fileID: 0}
  m_GameObject: {fileID: 9186318094246992686}
  m_Enabled: 1
  m_AgentTypeID: 0
  m_Radius: 0.5
  m_Speed: 1.98
  m_Acceleration: 8
  avoidancePriority: 50
  m_AngularSpeed: 120
  m_StoppingDistance: 0
  m_AutoTraverseOffMeshLink: 1
  m_AutoBraking: 1
  m_AutoRepath: 1
  m_Height: 2
  m_BaseOffset: 0
  m_WalkableMask: 4294967295
  m_ObstacleAvoidanceType: 4
--- !u!1001 &891069189246845479
PrefabInstance:
  m_ObjectHideFlags: 0
  serializedVersion: 2
  m_Modification:
    m_TransformParent: {fileID: 0}
    m_Modifications:
    - target: {fileID: -9042772588573301732, guid: eaa6f63815a4ec44498d3052754c06fe,
        type: 3}
      propertyPath: m_LocalEulerAnglesHint.x
      value: 9.298339
      objectReference: {fileID: 0}
    - target: {fileID: -9042772588573301732, guid: eaa6f63815a4ec44498d3052754c06fe,
        type: 3}
      propertyPath: m_LocalEulerAnglesHint.y
      value: -4.4754076
      objectReference: {fileID: 0}
    - target: {fileID: -9042772588573301732, guid: eaa6f63815a4ec44498d3052754c06fe,
        type: 3}
      propertyPath: m_LocalEulerAnglesHint.z
      value: -9.422112
      objectReference: {fileID: 0}
    - target: {fileID: -8250042734801592476, guid: eaa6f63815a4ec44498d3052754c06fe,
        type: 3}
      propertyPath: m_LocalEulerAnglesHint.x
      value: 7.9114604
      objectReference: {fileID: 0}
    - target: {fileID: -8250042734801592476, guid: eaa6f63815a4ec44498d3052754c06fe,
        type: 3}
      propertyPath: m_LocalEulerAnglesHint.y
      value: -1.2981775
      objectReference: {fileID: 0}
    - target: {fileID: -8250042734801592476, guid: eaa6f63815a4ec44498d3052754c06fe,
        type: 3}
      propertyPath: m_LocalEulerAnglesHint.z
      value: 3.9649968
      objectReference: {fileID: 0}
    - target: {fileID: -7709620485779973180, guid: eaa6f63815a4ec44498d3052754c06fe,
        type: 3}
      propertyPath: m_LocalEulerAnglesHint.x
      value: 0.00012235886
      objectReference: {fileID: 0}
    - target: {fileID: -7709620485779973180, guid: eaa6f63815a4ec44498d3052754c06fe,
        type: 3}
      propertyPath: m_LocalEulerAnglesHint.y
      value: 22.690132
      objectReference: {fileID: 0}
    - target: {fileID: -7709620485779973180, guid: eaa6f63815a4ec44498d3052754c06fe,
        type: 3}
      propertyPath: m_LocalEulerAnglesHint.z
      value: -0.00009656635
      objectReference: {fileID: 0}
    - target: {fileID: -6524766801059751867, guid: eaa6f63815a4ec44498d3052754c06fe,
        type: 3}
      propertyPath: m_LocalEulerAnglesHint.x
      value: 7.0656743
      objectReference: {fileID: 0}
    - target: {fileID: -6524766801059751867, guid: eaa6f63815a4ec44498d3052754c06fe,
        type: 3}
      propertyPath: m_LocalEulerAnglesHint.y
      value: 19.640873
      objectReference: {fileID: 0}
    - target: {fileID: -6524766801059751867, guid: eaa6f63815a4ec44498d3052754c06fe,
        type: 3}
      propertyPath: m_LocalEulerAnglesHint.z
      value: -0.64813304
      objectReference: {fileID: 0}
    - target: {fileID: -6291910627644148817, guid: eaa6f63815a4ec44498d3052754c06fe,
        type: 3}
      propertyPath: m_LocalEulerAnglesHint.x
      value: 6.541759
      objectReference: {fileID: 0}
    - target: {fileID: -6291910627644148817, guid: eaa6f63815a4ec44498d3052754c06fe,
        type: 3}
      propertyPath: m_LocalEulerAnglesHint.y
      value: -21.276333
      objectReference: {fileID: 0}
    - target: {fileID: -6291910627644148817, guid: eaa6f63815a4ec44498d3052754c06fe,
        type: 3}
      propertyPath: m_LocalEulerAnglesHint.z
      value: -5.9953384
      objectReference: {fileID: 0}
    - target: {fileID: -6072319467140619064, guid: eaa6f63815a4ec44498d3052754c06fe,
        type: 3}
      propertyPath: m_LocalEulerAnglesHint.x
      value: 15.060775
      objectReference: {fileID: 0}
    - target: {fileID: -6072319467140619064, guid: eaa6f63815a4ec44498d3052754c06fe,
        type: 3}
      propertyPath: m_LocalEulerAnglesHint.y
      value: -2.5524604
      objectReference: {fileID: 0}
    - target: {fileID: -6072319467140619064, guid: eaa6f63815a4ec44498d3052754c06fe,
        type: 3}
      propertyPath: m_LocalEulerAnglesHint.z
      value: 2.1394918
      objectReference: {fileID: 0}
    - target: {fileID: -5975222741560803410, guid: eaa6f63815a4ec44498d3052754c06fe,
        type: 3}
      propertyPath: m_LocalEulerAnglesHint.x
      value: -2.5972424
      objectReference: {fileID: 0}
    - target: {fileID: -5975222741560803410, guid: eaa6f63815a4ec44498d3052754c06fe,
        type: 3}
      propertyPath: m_LocalEulerAnglesHint.y
      value: 0.003923048
      objectReference: {fileID: 0}
    - target: {fileID: -5975222741560803410, guid: eaa6f63815a4ec44498d3052754c06fe,
        type: 3}
      propertyPath: m_LocalEulerAnglesHint.z
      value: -0.10367664
      objectReference: {fileID: 0}
    - target: {fileID: -4676408568124400190, guid: eaa6f63815a4ec44498d3052754c06fe,
        type: 3}
      propertyPath: m_LocalEulerAnglesHint.x
      value: -7.304584
      objectReference: {fileID: 0}
    - target: {fileID: -4676408568124400190, guid: eaa6f63815a4ec44498d3052754c06fe,
        type: 3}
      propertyPath: m_LocalEulerAnglesHint.y
      value: -0.3141333
      objectReference: {fileID: 0}
    - target: {fileID: -4676408568124400190, guid: eaa6f63815a4ec44498d3052754c06fe,
        type: 3}
      propertyPath: m_LocalEulerAnglesHint.z
      value: 1.2173544
      objectReference: {fileID: 0}
    - target: {fileID: -4512898290646121238, guid: eaa6f63815a4ec44498d3052754c06fe,
        type: 3}
      propertyPath: m_LocalEulerAnglesHint.x
      value: 0.76104134
      objectReference: {fileID: 0}
    - target: {fileID: -4512898290646121238, guid: eaa6f63815a4ec44498d3052754c06fe,
        type: 3}
      propertyPath: m_LocalEulerAnglesHint.y
      value: 5.56237
      objectReference: {fileID: 0}
    - target: {fileID: -4512898290646121238, guid: eaa6f63815a4ec44498d3052754c06fe,
        type: 3}
      propertyPath: m_LocalEulerAnglesHint.z
      value: -21.52905
      objectReference: {fileID: 0}
    - target: {fileID: -4216859302048453862, guid: eaa6f63815a4ec44498d3052754c06fe,
        type: 3}
      propertyPath: m_LocalPosition.x
      value: 40.688858
      objectReference: {fileID: 0}
    - target: {fileID: -4216859302048453862, guid: eaa6f63815a4ec44498d3052754c06fe,
        type: 3}
      propertyPath: m_LocalPosition.y
      value: 0
      objectReference: {fileID: 0}
    - target: {fileID: -4216859302048453862, guid: eaa6f63815a4ec44498d3052754c06fe,
        type: 3}
      propertyPath: m_LocalPosition.z
      value: -48.087627
      objectReference: {fileID: 0}
    - target: {fileID: -4216859302048453862, guid: eaa6f63815a4ec44498d3052754c06fe,
        type: 3}
      propertyPath: m_LocalRotation.x
      value: 0
      objectReference: {fileID: 0}
    - target: {fileID: -4216859302048453862, guid: eaa6f63815a4ec44498d3052754c06fe,
        type: 3}
      propertyPath: m_LocalRotation.y
      value: 0
      objectReference: {fileID: 0}
    - target: {fileID: -4216859302048453862, guid: eaa6f63815a4ec44498d3052754c06fe,
        type: 3}
      propertyPath: m_LocalRotation.z
      value: 0
      objectReference: {fileID: 0}
    - target: {fileID: -4216859302048453862, guid: eaa6f63815a4ec44498d3052754c06fe,
        type: 3}
      propertyPath: m_LocalRotation.w
      value: 1
      objectReference: {fileID: 0}
    - target: {fileID: -4216859302048453862, guid: eaa6f63815a4ec44498d3052754c06fe,
        type: 3}
      propertyPath: m_RootOrder
      value: 0
      objectReference: {fileID: 0}
    - target: {fileID: -4216859302048453862, guid: eaa6f63815a4ec44498d3052754c06fe,
        type: 3}
      propertyPath: m_LocalEulerAnglesHint.x
      value: 0
      objectReference: {fileID: 0}
    - target: {fileID: -4216859302048453862, guid: eaa6f63815a4ec44498d3052754c06fe,
        type: 3}
      propertyPath: m_LocalEulerAnglesHint.y
      value: 0
      objectReference: {fileID: 0}
    - target: {fileID: -4216859302048453862, guid: eaa6f63815a4ec44498d3052754c06fe,
        type: 3}
      propertyPath: m_LocalEulerAnglesHint.z
      value: 0
      objectReference: {fileID: 0}
    - target: {fileID: -4216859302048453862, guid: eaa6f63815a4ec44498d3052754c06fe,
        type: 3}
      propertyPath: m_LocalScale.x
      value: 5
      objectReference: {fileID: 0}
    - target: {fileID: -4216859302048453862, guid: eaa6f63815a4ec44498d3052754c06fe,
        type: 3}
      propertyPath: m_LocalScale.y
      value: 5
      objectReference: {fileID: 0}
    - target: {fileID: -4216859302048453862, guid: eaa6f63815a4ec44498d3052754c06fe,
        type: 3}
      propertyPath: m_LocalScale.z
      value: 5
      objectReference: {fileID: 0}
    - target: {fileID: -4154779852888883423, guid: eaa6f63815a4ec44498d3052754c06fe,
        type: 3}
      propertyPath: m_LocalEulerAnglesHint.x
      value: 0.19012424
      objectReference: {fileID: 0}
    - target: {fileID: -4154779852888883423, guid: eaa6f63815a4ec44498d3052754c06fe,
        type: 3}
      propertyPath: m_LocalEulerAnglesHint.y
      value: -1.6105345
      objectReference: {fileID: 0}
    - target: {fileID: -4154779852888883423, guid: eaa6f63815a4ec44498d3052754c06fe,
        type: 3}
      propertyPath: m_LocalEulerAnglesHint.z
      value: 13.464555
      objectReference: {fileID: 0}
    - target: {fileID: -3981541427143057316, guid: eaa6f63815a4ec44498d3052754c06fe,
        type: 3}
      propertyPath: m_LocalEulerAnglesHint.x
      value: 22.885115
      objectReference: {fileID: 0}
    - target: {fileID: -3981541427143057316, guid: eaa6f63815a4ec44498d3052754c06fe,
        type: 3}
      propertyPath: m_LocalEulerAnglesHint.y
      value: -11.151292
      objectReference: {fileID: 0}
    - target: {fileID: -3981541427143057316, guid: eaa6f63815a4ec44498d3052754c06fe,
        type: 3}
      propertyPath: m_LocalEulerAnglesHint.z
      value: -8.140878
      objectReference: {fileID: 0}
    - target: {fileID: -3683396254390550488, guid: eaa6f63815a4ec44498d3052754c06fe,
        type: 3}
      propertyPath: m_LocalEulerAnglesHint.x
      value: 0.6318715
      objectReference: {fileID: 0}
    - target: {fileID: -3683396254390550488, guid: eaa6f63815a4ec44498d3052754c06fe,
        type: 3}
      propertyPath: m_LocalEulerAnglesHint.y
      value: -2.8886235
      objectReference: {fileID: 0}
    - target: {fileID: -3683396254390550488, guid: eaa6f63815a4ec44498d3052754c06fe,
        type: 3}
      propertyPath: m_LocalEulerAnglesHint.z
      value: 24.674686
      objectReference: {fileID: 0}
    - target: {fileID: -3265311125587442095, guid: eaa6f63815a4ec44498d3052754c06fe,
        type: 3}
      propertyPath: m_LocalEulerAnglesHint.x
      value: -0.5797021
      objectReference: {fileID: 0}
    - target: {fileID: -3265311125587442095, guid: eaa6f63815a4ec44498d3052754c06fe,
        type: 3}
      propertyPath: m_LocalEulerAnglesHint.y
      value: -1.5743117
      objectReference: {fileID: 0}
    - target: {fileID: -3265311125587442095, guid: eaa6f63815a4ec44498d3052754c06fe,
        type: 3}
      propertyPath: m_LocalEulerAnglesHint.z
      value: -2.5228846
      objectReference: {fileID: 0}
    - target: {fileID: -2322225799281468331, guid: eaa6f63815a4ec44498d3052754c06fe,
        type: 3}
      propertyPath: m_LocalEulerAnglesHint.x
      value: 0.00013477913
      objectReference: {fileID: 0}
    - target: {fileID: -2322225799281468331, guid: eaa6f63815a4ec44498d3052754c06fe,
        type: 3}
      propertyPath: m_LocalEulerAnglesHint.y
      value: -25.709305
      objectReference: {fileID: 0}
    - target: {fileID: -2322225799281468331, guid: eaa6f63815a4ec44498d3052754c06fe,
        type: 3}
      propertyPath: m_LocalEulerAnglesHint.z
      value: 0.000083817205
      objectReference: {fileID: 0}
    - target: {fileID: -2155698984899779544, guid: eaa6f63815a4ec44498d3052754c06fe,
        type: 3}
      propertyPath: m_LocalEulerAnglesHint.x
      value: 1.2645923
      objectReference: {fileID: 0}
    - target: {fileID: -2155698984899779544, guid: eaa6f63815a4ec44498d3052754c06fe,
        type: 3}
      propertyPath: m_LocalEulerAnglesHint.y
      value: 6.0693436
      objectReference: {fileID: 0}
    - target: {fileID: -2155698984899779544, guid: eaa6f63815a4ec44498d3052754c06fe,
        type: 3}
      propertyPath: m_LocalEulerAnglesHint.z
      value: -16.325878
      objectReference: {fileID: 0}
    - target: {fileID: -1933529881475503721, guid: eaa6f63815a4ec44498d3052754c06fe,
        type: 3}
      propertyPath: m_LocalEulerAnglesHint.x
      value: 0.15323575
      objectReference: {fileID: 0}
    - target: {fileID: -1933529881475503721, guid: eaa6f63815a4ec44498d3052754c06fe,
        type: 3}
      propertyPath: m_LocalEulerAnglesHint.y
      value: 1.4552492
      objectReference: {fileID: 0}
    - target: {fileID: -1933529881475503721, guid: eaa6f63815a4ec44498d3052754c06fe,
        type: 3}
      propertyPath: m_LocalEulerAnglesHint.z
      value: -12.023522
      objectReference: {fileID: 0}
    - target: {fileID: -1511721267570899276, guid: eaa6f63815a4ec44498d3052754c06fe,
        type: 3}
      propertyPath: m_LocalEulerAnglesHint.x
      value: 2.0893452
      objectReference: {fileID: 0}
    - target: {fileID: -1511721267570899276, guid: eaa6f63815a4ec44498d3052754c06fe,
        type: 3}
      propertyPath: m_LocalEulerAnglesHint.y
      value: 4.9843955
      objectReference: {fileID: 0}
    - target: {fileID: -1511721267570899276, guid: eaa6f63815a4ec44498d3052754c06fe,
        type: 3}
      propertyPath: m_LocalEulerAnglesHint.z
      value: -45.463074
      objectReference: {fileID: 0}
    - target: {fileID: -1461126803791000925, guid: eaa6f63815a4ec44498d3052754c06fe,
        type: 3}
      propertyPath: m_LocalEulerAnglesHint.x
      value: 0.85256004
      objectReference: {fileID: 0}
    - target: {fileID: -1461126803791000925, guid: eaa6f63815a4ec44498d3052754c06fe,
        type: 3}
      propertyPath: m_LocalEulerAnglesHint.y
      value: 3.3447227
      objectReference: {fileID: 0}
    - target: {fileID: -1461126803791000925, guid: eaa6f63815a4ec44498d3052754c06fe,
        type: 3}
      propertyPath: m_LocalEulerAnglesHint.z
      value: -28.594606
      objectReference: {fileID: 0}
    - target: {fileID: -1446277752201199261, guid: eaa6f63815a4ec44498d3052754c06fe,
        type: 3}
      propertyPath: m_LocalEulerAnglesHint.x
      value: 1.4777701
      objectReference: {fileID: 0}
    - target: {fileID: -1446277752201199261, guid: eaa6f63815a4ec44498d3052754c06fe,
        type: 3}
      propertyPath: m_LocalEulerAnglesHint.y
      value: -0.18154785
      objectReference: {fileID: 0}
    - target: {fileID: -1446277752201199261, guid: eaa6f63815a4ec44498d3052754c06fe,
        type: 3}
      propertyPath: m_LocalEulerAnglesHint.z
      value: 38.3756
      objectReference: {fileID: 0}
    - target: {fileID: -927199367670048503, guid: eaa6f63815a4ec44498d3052754c06fe,
        type: 3}
      propertyPath: m_Name
      value: Zombie2
      objectReference: {fileID: 0}
    - target: {fileID: -927199367670048503, guid: eaa6f63815a4ec44498d3052754c06fe,
        type: 3}
      propertyPath: m_TagString
      value: Zombie2
      objectReference: {fileID: 0}
    - target: {fileID: -650382798008282385, guid: eaa6f63815a4ec44498d3052754c06fe,
        type: 3}
      propertyPath: m_LocalEulerAnglesHint.x
      value: 2.8355656
      objectReference: {fileID: 0}
    - target: {fileID: -650382798008282385, guid: eaa6f63815a4ec44498d3052754c06fe,
        type: 3}
      propertyPath: m_LocalEulerAnglesHint.y
      value: -2.5065844
      objectReference: {fileID: 0}
    - target: {fileID: -650382798008282385, guid: eaa6f63815a4ec44498d3052754c06fe,
        type: 3}
      propertyPath: m_LocalEulerAnglesHint.z
      value: 4.61087
      objectReference: {fileID: 0}
    - target: {fileID: -111256922469883070, guid: eaa6f63815a4ec44498d3052754c06fe,
        type: 3}
      propertyPath: m_LocalEulerAnglesHint.x
      value: -2.8551857
      objectReference: {fileID: 0}
    - target: {fileID: -111256922469883070, guid: eaa6f63815a4ec44498d3052754c06fe,
        type: 3}
      propertyPath: m_LocalEulerAnglesHint.y
      value: 24.285896
      objectReference: {fileID: 0}
    - target: {fileID: -111256922469883070, guid: eaa6f63815a4ec44498d3052754c06fe,
        type: 3}
      propertyPath: m_LocalEulerAnglesHint.z
      value: -20.126654
      objectReference: {fileID: 0}
    - target: {fileID: 1570982208341713169, guid: eaa6f63815a4ec44498d3052754c06fe,
        type: 3}
      propertyPath: m_LocalEulerAnglesHint.x
      value: -1.4748192
      objectReference: {fileID: 0}
    - target: {fileID: 1570982208341713169, guid: eaa6f63815a4ec44498d3052754c06fe,
        type: 3}
      propertyPath: m_LocalEulerAnglesHint.y
      value: 8.104541
      objectReference: {fileID: 0}
    - target: {fileID: 1570982208341713169, guid: eaa6f63815a4ec44498d3052754c06fe,
        type: 3}
      propertyPath: m_LocalEulerAnglesHint.z
      value: 11.506173
      objectReference: {fileID: 0}
    - target: {fileID: 1667364191752025443, guid: eaa6f63815a4ec44498d3052754c06fe,
        type: 3}
      propertyPath: m_LocalEulerAnglesHint.x
      value: 45.96234
      objectReference: {fileID: 0}
    - target: {fileID: 1667364191752025443, guid: eaa6f63815a4ec44498d3052754c06fe,
        type: 3}
      propertyPath: m_LocalEulerAnglesHint.y
      value: -10.770665
      objectReference: {fileID: 0}
    - target: {fileID: 1667364191752025443, guid: eaa6f63815a4ec44498d3052754c06fe,
        type: 3}
      propertyPath: m_LocalEulerAnglesHint.z
      value: 2.3865855
      objectReference: {fileID: 0}
    - target: {fileID: 1707243787577406375, guid: eaa6f63815a4ec44498d3052754c06fe,
        type: 3}
      propertyPath: m_LocalEulerAnglesHint.x
      value: -34.665897
      objectReference: {fileID: 0}
    - target: {fileID: 1707243787577406375, guid: eaa6f63815a4ec44498d3052754c06fe,
        type: 3}
      propertyPath: m_LocalEulerAnglesHint.y
      value: -15.977318
      objectReference: {fileID: 0}
    - target: {fileID: 1707243787577406375, guid: eaa6f63815a4ec44498d3052754c06fe,
        type: 3}
      propertyPath: m_LocalEulerAnglesHint.z
      value: 12.550122
      objectReference: {fileID: 0}
    - target: {fileID: 2447618820741602976, guid: eaa6f63815a4ec44498d3052754c06fe,
        type: 3}
      propertyPath: m_LocalEulerAnglesHint.x
      value: 0.15324685
      objectReference: {fileID: 0}
    - target: {fileID: 2447618820741602976, guid: eaa6f63815a4ec44498d3052754c06fe,
        type: 3}
      propertyPath: m_LocalEulerAnglesHint.y
      value: 1.4550388
      objectReference: {fileID: 0}
    - target: {fileID: 2447618820741602976, guid: eaa6f63815a4ec44498d3052754c06fe,
        type: 3}
      propertyPath: m_LocalEulerAnglesHint.z
      value: -12.023755
      objectReference: {fileID: 0}
    - target: {fileID: 3032709384399896372, guid: eaa6f63815a4ec44498d3052754c06fe,
        type: 3}
      propertyPath: m_LocalEulerAnglesHint.x
      value: -32.771088
      objectReference: {fileID: 0}
    - target: {fileID: 3032709384399896372, guid: eaa6f63815a4ec44498d3052754c06fe,
        type: 3}
      propertyPath: m_LocalEulerAnglesHint.y
      value: -20.708805
      objectReference: {fileID: 0}
    - target: {fileID: 3032709384399896372, guid: eaa6f63815a4ec44498d3052754c06fe,
        type: 3}
      propertyPath: m_LocalEulerAnglesHint.z
      value: -4.6902533
      objectReference: {fileID: 0}
    - target: {fileID: 3266670797994321630, guid: eaa6f63815a4ec44498d3052754c06fe,
        type: 3}
      propertyPath: m_LocalEulerAnglesHint.x
      value: -3.6704824
      objectReference: {fileID: 0}
    - target: {fileID: 3266670797994321630, guid: eaa6f63815a4ec44498d3052754c06fe,
        type: 3}
      propertyPath: m_LocalEulerAnglesHint.y
      value: -21.70144
      objectReference: {fileID: 0}
    - target: {fileID: 3266670797994321630, guid: eaa6f63815a4ec44498d3052754c06fe,
        type: 3}
      propertyPath: m_LocalEulerAnglesHint.z
      value: 22.22703
      objectReference: {fileID: 0}
    - target: {fileID: 3284189602423400322, guid: eaa6f63815a4ec44498d3052754c06fe,
        type: 3}
      propertyPath: m_LocalEulerAnglesHint.x
      value: 1.191886
      objectReference: {fileID: 0}
    - target: {fileID: 3284189602423400322, guid: eaa6f63815a4ec44498d3052754c06fe,
        type: 3}
      propertyPath: m_LocalEulerAnglesHint.y
      value: 3.9032395
      objectReference: {fileID: 0}
    - target: {fileID: 3284189602423400322, guid: eaa6f63815a4ec44498d3052754c06fe,
        type: 3}
      propertyPath: m_LocalEulerAnglesHint.z
      value: -33.94948
      objectReference: {fileID: 0}
    - target: {fileID: 3333829519681022368, guid: eaa6f63815a4ec44498d3052754c06fe,
        type: 3}
      propertyPath: m_LocalEulerAnglesHint.x
      value: 2.0893292
      objectReference: {fileID: 0}
    - target: {fileID: 3333829519681022368, guid: eaa6f63815a4ec44498d3052754c06fe,
        type: 3}
      propertyPath: m_LocalEulerAnglesHint.y
      value: 4.9846616
      objectReference: {fileID: 0}
    - target: {fileID: 3333829519681022368, guid: eaa6f63815a4ec44498d3052754c06fe,
        type: 3}
      propertyPath: m_LocalEulerAnglesHint.z
      value: -45.46284
      objectReference: {fileID: 0}
    - target: {fileID: 4016136783950185686, guid: eaa6f63815a4ec44498d3052754c06fe,
        type: 3}
      propertyPath: m_LocalEulerAnglesHint.x
      value: -0.5188631
      objectReference: {fileID: 0}
    - target: {fileID: 4016136783950185686, guid: eaa6f63815a4ec44498d3052754c06fe,
        type: 3}
      propertyPath: m_LocalEulerAnglesHint.y
      value: 0.91873616
      objectReference: {fileID: 0}
    - target: {fileID: 4016136783950185686, guid: eaa6f63815a4ec44498d3052754c06fe,
        type: 3}
      propertyPath: m_LocalEulerAnglesHint.z
      value: 14.163198
      objectReference: {fileID: 0}
    - target: {fileID: 4020150453196039039, guid: eaa6f63815a4ec44498d3052754c06fe,
        type: 3}
      propertyPath: m_LocalEulerAnglesHint.x
      value: -0.53189665
      objectReference: {fileID: 0}
    - target: {fileID: 4020150453196039039, guid: eaa6f63815a4ec44498d3052754c06fe,
        type: 3}
      propertyPath: m_LocalEulerAnglesHint.y
      value: -0.7533458
      objectReference: {fileID: 0}
    - target: {fileID: 4020150453196039039, guid: eaa6f63815a4ec44498d3052754c06fe,
        type: 3}
      propertyPath: m_LocalEulerAnglesHint.z
      value: -15.273353
      objectReference: {fileID: 0}
    - target: {fileID: 4341065987587142778, guid: eaa6f63815a4ec44498d3052754c06fe,
        type: 3}
      propertyPath: m_LocalEulerAnglesHint.x
      value: -0.6026865
      objectReference: {fileID: 0}
    - target: {fileID: 4341065987587142778, guid: eaa6f63815a4ec44498d3052754c06fe,
        type: 3}
      propertyPath: m_LocalEulerAnglesHint.y
      value: 21.479778
      objectReference: {fileID: 0}
    - target: {fileID: 4341065987587142778, guid: eaa6f63815a4ec44498d3052754c06fe,
        type: 3}
      propertyPath: m_LocalEulerAnglesHint.z
      value: -0.19210239
      objectReference: {fileID: 0}
    - target: {fileID: 4487112057583827060, guid: eaa6f63815a4ec44498d3052754c06fe,
        type: 3}
      propertyPath: m_LocalEulerAnglesHint.x
      value: -0.8427573
      objectReference: {fileID: 0}
    - target: {fileID: 4487112057583827060, guid: eaa6f63815a4ec44498d3052754c06fe,
        type: 3}
      propertyPath: m_LocalEulerAnglesHint.y
      value: 0.0000011570369
      objectReference: {fileID: 0}
    - target: {fileID: 4487112057583827060, guid: eaa6f63815a4ec44498d3052754c06fe,
        type: 3}
      propertyPath: m_LocalEulerAnglesHint.z
      value: -0.00000027699045
      objectReference: {fileID: 0}
    - target: {fileID: 4840468269845838198, guid: eaa6f63815a4ec44498d3052754c06fe,
        type: 3}
      propertyPath: m_LocalEulerAnglesHint.x
      value: 0.6933516
      objectReference: {fileID: 0}
    - target: {fileID: 4840468269845838198, guid: eaa6f63815a4ec44498d3052754c06fe,
        type: 3}
      propertyPath: m_LocalEulerAnglesHint.y
      value: -5.3974557
      objectReference: {fileID: 0}
    - target: {fileID: 4840468269845838198, guid: eaa6f63815a4ec44498d3052754c06fe,
        type: 3}
      propertyPath: m_LocalEulerAnglesHint.z
      value: 20.247498
      objectReference: {fileID: 0}
    - target: {fileID: 4988157282478054135, guid: eaa6f63815a4ec44498d3052754c06fe,
        type: 3}
      propertyPath: m_LocalEulerAnglesHint.x
      value: 3.928739
      objectReference: {fileID: 0}
    - target: {fileID: 4988157282478054135, guid: eaa6f63815a4ec44498d3052754c06fe,
        type: 3}
      propertyPath: m_LocalEulerAnglesHint.y
      value: -7.4674926
      objectReference: {fileID: 0}
    - target: {fileID: 4988157282478054135, guid: eaa6f63815a4ec44498d3052754c06fe,
        type: 3}
      propertyPath: m_LocalEulerAnglesHint.z
      value: 37.203552
      objectReference: {fileID: 0}
    - target: {fileID: 5758113460382507863, guid: eaa6f63815a4ec44498d3052754c06fe,
        type: 3}
      propertyPath: m_LocalEulerAnglesHint.x
      value: -9.942502
      objectReference: {fileID: 0}
    - target: {fileID: 5758113460382507863, guid: eaa6f63815a4ec44498d3052754c06fe,
        type: 3}
      propertyPath: m_LocalEulerAnglesHint.y
      value: -104.19
      objectReference: {fileID: 0}
    - target: {fileID: 5758113460382507863, guid: eaa6f63815a4ec44498d3052754c06fe,
        type: 3}
      propertyPath: m_LocalEulerAnglesHint.z
      value: 29.740007
      objectReference: {fileID: 0}
    - target: {fileID: 5957631226323849276, guid: eaa6f63815a4ec44498d3052754c06fe,
        type: 3}
      propertyPath: m_LocalEulerAnglesHint.x
      value: 15.026578
      objectReference: {fileID: 0}
    - target: {fileID: 5957631226323849276, guid: eaa6f63815a4ec44498d3052754c06fe,
        type: 3}
      propertyPath: m_LocalEulerAnglesHint.y
      value: -2.757615
      objectReference: {fileID: 0}
    - target: {fileID: 5957631226323849276, guid: eaa6f63815a4ec44498d3052754c06fe,
        type: 3}
      propertyPath: m_LocalEulerAnglesHint.z
      value: 2.0822358
      objectReference: {fileID: 0}
    - target: {fileID: 6157044298205935697, guid: eaa6f63815a4ec44498d3052754c06fe,
        type: 3}
      propertyPath: m_LocalEulerAnglesHint.x
      value: -37.63471
      objectReference: {fileID: 0}
    - target: {fileID: 6157044298205935697, guid: eaa6f63815a4ec44498d3052754c06fe,
        type: 3}
      propertyPath: m_LocalEulerAnglesHint.y
      value: 74.32032
      objectReference: {fileID: 0}
    - target: {fileID: 6157044298205935697, guid: eaa6f63815a4ec44498d3052754c06fe,
        type: 3}
      propertyPath: m_LocalEulerAnglesHint.z
      value: -37.21032
      objectReference: {fileID: 0}
    - target: {fileID: 6159864436195360518, guid: eaa6f63815a4ec44498d3052754c06fe,
        type: 3}
      propertyPath: m_LocalEulerAnglesHint.x
      value: -41.68504
      objectReference: {fileID: 0}
    - target: {fileID: 6159864436195360518, guid: eaa6f63815a4ec44498d3052754c06fe,
        type: 3}
      propertyPath: m_LocalEulerAnglesHint.y
      value: -1.5584291
      objectReference: {fileID: 0}
    - target: {fileID: 6159864436195360518, guid: eaa6f63815a4ec44498d3052754c06fe,
        type: 3}
      propertyPath: m_LocalEulerAnglesHint.z
      value: -18.57632
      objectReference: {fileID: 0}
    - target: {fileID: 7227358949830344843, guid: eaa6f63815a4ec44498d3052754c06fe,
        type: 3}
      propertyPath: m_LocalEulerAnglesHint.x
      value: -17.92883
      objectReference: {fileID: 0}
    - target: {fileID: 7227358949830344843, guid: eaa6f63815a4ec44498d3052754c06fe,
        type: 3}
      propertyPath: m_LocalEulerAnglesHint.y
      value: 2.0514443
      objectReference: {fileID: 0}
    - target: {fileID: 7227358949830344843, guid: eaa6f63815a4ec44498d3052754c06fe,
        type: 3}
      propertyPath: m_LocalEulerAnglesHint.z
      value: 10.913105
      objectReference: {fileID: 0}
    - target: {fileID: 7690983453011451596, guid: eaa6f63815a4ec44498d3052754c06fe,
        type: 3}
      propertyPath: m_LocalEulerAnglesHint.x
      value: 26.355305
      objectReference: {fileID: 0}
    - target: {fileID: 7690983453011451596, guid: eaa6f63815a4ec44498d3052754c06fe,
        type: 3}
      propertyPath: m_LocalEulerAnglesHint.y
      value: -9.6816435
      objectReference: {fileID: 0}
    - target: {fileID: 7690983453011451596, guid: eaa6f63815a4ec44498d3052754c06fe,
        type: 3}
      propertyPath: m_LocalEulerAnglesHint.z
      value: 9.567459
      objectReference: {fileID: 0}
    - target: {fileID: 8021513722340897840, guid: eaa6f63815a4ec44498d3052754c06fe,
        type: 3}
      propertyPath: m_LocalEulerAnglesHint.x
      value: -1.2741886
      objectReference: {fileID: 0}
    - target: {fileID: 8021513722340897840, guid: eaa6f63815a4ec44498d3052754c06fe,
        type: 3}
      propertyPath: m_LocalEulerAnglesHint.y
      value: -0.13814312
      objectReference: {fileID: 0}
    - target: {fileID: 8021513722340897840, guid: eaa6f63815a4ec44498d3052754c06fe,
        type: 3}
      propertyPath: m_LocalEulerAnglesHint.z
      value: 2.097995
      objectReference: {fileID: 0}
    - target: {fileID: 8178470471775331356, guid: eaa6f63815a4ec44498d3052754c06fe,
        type: 3}
      propertyPath: m_LocalEulerAnglesHint.x
      value: 0.8853128
      objectReference: {fileID: 0}
    - target: {fileID: 8178470471775331356, guid: eaa6f63815a4ec44498d3052754c06fe,
        type: 3}
      propertyPath: m_LocalEulerAnglesHint.y
      value: -3.386158
      objectReference: {fileID: 0}
    - target: {fileID: 8178470471775331356, guid: eaa6f63815a4ec44498d3052754c06fe,
        type: 3}
      propertyPath: m_LocalEulerAnglesHint.z
      value: 29.296844
      objectReference: {fileID: 0}
    - target: {fileID: 8471817552926959368, guid: eaa6f63815a4ec44498d3052754c06fe,
        type: 3}
      propertyPath: m_LocalEulerAnglesHint.x
      value: 0.19012785
      objectReference: {fileID: 0}
    - target: {fileID: 8471817552926959368, guid: eaa6f63815a4ec44498d3052754c06fe,
        type: 3}
      propertyPath: m_LocalEulerAnglesHint.y
      value: -1.6107692
      objectReference: {fileID: 0}
    - target: {fileID: 8471817552926959368, guid: eaa6f63815a4ec44498d3052754c06fe,
        type: 3}
      propertyPath: m_LocalEulerAnglesHint.z
      value: 13.464324
      objectReference: {fileID: 0}
    m_RemovedComponents: []
  m_SourcePrefab: {fileID: 100100000, guid: eaa6f63815a4ec44498d3052754c06fe, type: 3}
--- !u!1 &9186318094246992686 stripped
GameObject:
  m_CorrespondingSourceObject: {fileID: -927199367670048503, guid: eaa6f63815a4ec44498d3052754c06fe,
    type: 3}
  m_PrefabInstance: {fileID: 891069189246845479}
  m_PrefabAsset: {fileID: 0}
